ID,Type,Date,Supplier,Customer,Amount,Customer Charge,Sale Total,Supplier Charge,Commission,Net Purchase
7268,Remittance Entry,01/06/2018,ITZ MONEY TRF AC,SHRINIVAS TKT AC,1200.0,20.0,1220.0,10.0,6.11,1203.89
7269,Remittance Entry,01/06/2018,ITZ MONEY TRF AC,ITZ TC AC,2000.0,20.0,2020.0,16.0,10.17,2005.83
7270,Remittance Entry,01/06/2018,ITZ MONEY TRF AC,ITZ TC AC,12000.0,100.0,12100.0,93.0,61.02,12031.98
7271,Remittance Entry,01/06/2018,ITZ MONEY TRF AC,ITZ TC AC,1000.0,10.0,1010.0,8.5,5.07,1003.43
7272,Remittance Entry,01/06/2018,ITZ MONEY TRF AC,ITZ TC AC,3000.0,40.0,3040.0,23.5,15.24,3008.26
7273,Remittance Entry,01/06/2018,ITZ MONEY TRF AC,ITZ TC AC,6000.0,60.0,6060.0,47.0,30.51,6016.49
7274,Remittance Entry,01/06/2018,ITZ MONEY TRF AC,ITZ TC AC,2500.0,30.0,2530.0,19.75,12.71,2507.04
7276,Remittance Entry,01/06/2018,ITZ MONEY TRF AC,ITZ TC AC,1500.0,20.0,1520.0,12.25,7.63,1504.62
7277,Remittance Entry,01/06/2018,ITZ MONEY TRF AC,ITZ TC AC,10000.0,80.0,10080.0,77.0,50.85,10026.15
7278,Remittance Entry,01/06/2018,ITZ MONEY TRF AC,ITZ TC AC,7000.0,80.0,7080.0,54.5,35.58,7018.92
7279,Remittance Entry,01/06/2018,FINO MONEY TFD AC NILESH VIRA ,ITZ TC AC,1000.0,20.0,1020.0,3.0,0.0,1003.0
7280,Remittance Entry,01/06/2018,ITZ MONEY TRF AC,ITZ TC AC,2000.0,20.0,2020.0,16.0,10.17,2005.83
7281,Remittance Entry,01/06/2018,ITZ MONEY TRF AC,ITZ TC AC,500.0,20.0,520.0,4.75,2.54,502.21
7282,Remittance Entry,01/06/2018,ITZ MONEY TRF AC,ITZ TC AC,2000.0,20.0,2020.0,16.0,10.17,2005.83
7283,Remittance Entry,01/06/2018,ITZ MONEY TRF AC,ITZ TC AC,34000.0,280.0,34280.0,262.0,172.89,34089.11
7284,Remittance Entry,01/06/2018,ITZ MONEY TRF AC,ITZ TC AC,18000.0,150.0,18150.0,139.0,91.53,18047.47
7285,Remittance Entry,01/06/2018,FINO MONEY TFD AC NILESH VIRA ,ITZ TC AC,1500.0,30.0,1530.0,6.0,0.0,1506.0
7286,Remittance Entry,01/06/2018,ITZ MONEY TRF AC,ITZ TC AC,10000.0,80.0,10080.0,77.0,50.85,10026.15
7287,Remittance Entry,01/06/2018,ITZ MONEY TRF AC,ITZ TC AC,5000.0,50.0,5050.0,38.5,25.41,5013.09
7288,Remittance Entry,01/06/2018,ITZ MONEY TRF AC,ITZ TC AC,6000.0,60.0,6060.0,47.0,30.51,6016.49
7289,Remittance Entry,01/06/2018,ITZ MONEY TRF AC,ITZ TC AC,10000.0,80.0,10080.0,77.0,50.85,10026.15
7290,Remittance Entry,01/06/2018,ITZ MONEY TRF AC,ITZ TC AC,35000.0,280.0,35280.0,269.5,177.96,35091.54
7291,Remittance Entry,01/06/2018,ITZ MONEY TRF AC,ITZ TC AC,4000.0,50.0,4050.0,31.0,20.34,4010.66
7292,Remittance Entry,01/06/2018,ITZ MONEY TRF AC,ITZ TC AC,3000.0,40.0,3040.0,23.5,15.24,3008.26
7293,Remittance Entry,01/06/2018,FINO MONEY TFD AC NILESH VIRA ,ITZ TC AC,8000.0,80.0,8080.0,24.0,0.0,8024.0
7294,Remittance Entry,01/06/2018,ITZ MONEY TRF AC,ITZ TC AC,10000.0,80.0,10080.0,77.0,50.85,10026.15
7295,Remittance Entry,01/06/2018,FINO MONEY TFD AC NILESH VIRA ,ITZ TC AC,6000.0,70.0,6070.0,18.0,0.0,6018.0
7296,Remittance Entry,01/06/2018,ITZ MONEY TRF AC,ITZ TC AC,1000.0,10.0,1010.0,8.5,5.07,1003.43
7297,Remittance Entry,01/06/2018,ITZ MONEY TRF AC,ITZ TC AC,3000.0,40.0,3040.0,23.5,15.24,3008.26
7298,Remittance Entry,01/06/2018,ITZ MONEY TRF AC,ITZ TC AC,40000.0,320.0,40320.0,308.0,203.4,40104.6
7300,Remittance Entry,01/06/2018,ITZ MONEY TRF AC,ITZ TC AC,500.0,10.0,510.0,4.75,2.54,502.21
7301,Remittance Entry,01/06/2018,ITZ MONEY TRF AC,ITZ TC AC,2000.0,20.0,2020.0,16.0,10.17,2005.83
7302,Remittance Entry,01/06/2018,ITZ MONEY TRF AC,ITZ TC AC,2000.0,20.0,2020.0,16.0,10.17,2005.83
7303,Remittance Entry,01/06/2018,FINO MONEY TFD AC NILESH VIRA ,ITZ TC AC,1600.0,20.0,1620.0,6.0,0.0,1606.0
7304,Remittance Entry,01/06/2018,ITZ MONEY TRF AC,ITZ TC AC,4000.0,50.0,4050.0,31.0,20.34,4010.66
7305,Remittance Entry,01/06/2018,ITZ MONEY TRF AC,ITZ TC AC,10000.0,80.0,10080.0,77.0,50.85,10026.15
7306,Remittance Entry,01/06/2018,ITZ MONEY TRF AC,ITZ TC AC,5000.0,50.0,5050.0,38.5,25.41,5013.09
7307,Remittance Entry,01/06/2018,ITZ MONEY TRF AC,ITZ TC AC,1500.0,20.0,1520.0,12.25,7.63,1504.62
7308,Remittance Entry,01/06/2018,ITZ MONEY TRF AC,ITZ TC AC,2000.0,20.0,2020.0,16.0,10.17,2005.83
7309,Remittance Entry,01/06/2018,ITZ MONEY TRF AC,ITZ TC AC,2000.0,20.0,2020.0,16.0,10.17,2005.83
7310,Remittance Entry,01/06/2018,ITZ MONEY TRF AC,ITZ TC AC,3000.0,40.0,3040.0,23.5,15.24,3008.26
7311,Remittance Entry,01/06/2018,ITZ MONEY TRF AC,ITZ TC AC,8000.0,70.0,8070.0,62.0,40.68,8021.32
7312,Remittance Entry,01/06/2018,ITZ MONEY TRF AC,ITZ TC AC,4000.0,50.0,4050.0,31.0,20.34,4010.66
7313,Remittance Entry,01/06/2018,ITZ MONEY TRF AC,ITZ TC AC,10000.0,80.0,10080.0,77.0,50.85,10026.15
7314,Remittance Entry,01/06/2018,ITZ MONEY TRF AC,ITZ TC AC,5000.0,50.0,5050.0,38.5,25.41,5013.09
7315,Remittance Entry,01/06/2018,ITZ MONEY TRF AC,ITZ TC AC,2500.0,30.0,2530.0,19.75,12.71,2507.04
7316,Remittance Entry,01/06/2018,ITZ MONEY TRF AC,ITZ TC AC,2000.0,20.0,2020.0,16.0,10.17,2005.83
7317,Remittance Entry,01/06/2018,ITZ MONEY TRF AC,ITZ TC AC,600.0,10.0,610.0,5.5,3.04,602.46
7318,Remittance Entry,01/06/2018,ITZ MONEY TRF AC,ITZ TC AC,6000.0,60.0,6060.0,47.0,30.51,6016.49
7319,Remittance Entry,01/06/2018,ITZ MONEY TRF AC,ITZ TC AC,10000.0,80.0,10080.0,77.0,50.85,10026.15
7320,Remittance Entry,01/06/2018,ITZ MONEY TRF AC,ITZ TC AC,2000.0,20.0,2020.0,16.0,10.17,2005.83
7321,Remittance Entry,01/06/2018,ITZ MONEY TRF AC,ITZ TC AC,5000.0,50.0,5050.0,38.5,25.41,5013.09
7322,Remittance Entry,01/06/2018,ITZ MONEY TRF AC,ITZ TC AC,2000.0,20.0,2020.0,16.0,10.17,2005.83
7323,Remittance Entry,01/06/2018,ITZ MONEY TRF AC,ITZ TC AC,5000.0,50.0,5050.0,38.5,25.41,5013.09
7324,Remittance Entry,01/06/2018,ITZ MONEY TRF AC,ITZ TC AC,5000.0,50.0,5050.0,38.5,25.41,5013.09
7325,Remittance Entry,01/06/2018,ITZ MONEY TRF AC,ITZ TC AC,3000.0,40.0,3040.0,23.5,15.24,3008.26
7326,Remittance Entry,01/06/2018,ITZ MONEY TRF AC,ITZ TC AC,30000.0,250.0,30250.0,231.0,152.55,30078.45
7327,Remittance Entry,01/06/2018,ITZ MONEY TRF AC,ITZ TC AC,10000.0,80.0,10080.0,77.0,50.85,10026.15
7328,Remittance Entry,01/06/2018,ITZ MONEY TRF AC,ITZ TC AC,2000.0,20.0,2020.0,16.0,10.17,2005.83
7329,Remittance Entry,01/06/2018,ITZ MONEY TRF AC,ITZ TC AC,3000.0,40.0,3040.0,23.5,15.24,3008.26
7330,Remittance Entry,01/06/2018,ITZ MONEY TRF AC,ITZ TC AC,1000.0,10.0,1010.0,8.5,5.07,1003.43
7331,Remittance Entry,01/06/2018,ITZ MONEY TRF AC,ITZ TC AC,4000.0,50.0,4050.0,31.0,20.34,4010.66
7332,Remittance Entry,01/06/2018,ITZ MONEY TRF AC,ITZ TC AC,10000.0,80.0,10080.0,77.0,50.85,10026.15
7333,Remittance Entry,01/06/2018,ITZ MONEY TRF AC,ITZ TC AC,5000.0,50.0,5050.0,38.5,25.41,5013.09
7334,Remittance Entry,01/06/2018,ITZ MONEY TRF AC,ITZ TC AC,1000.0,10.0,1010.0,8.5,5.07,1003.43
7335,Remittance Entry,01/06/2018,ITZ MONEY TRF AC,ITZ TC AC,5000.0,50.0,5050.0,38.5,25.41,5013.09
7336,Remittance Entry,01/06/2018,ITZ MONEY TRF AC,ITZ TC AC,4000.0,50.0,4050.0,31.0,20.34,4010.66
7337,Remittance Entry,01/06/2018,FINO MONEY TFD AC NILESH VIRA ,ITZ TC AC,2000.0,20.0,2020.0,6.0,0.0,2006.0
7338,Remittance Entry,01/06/2018,ITZ MONEY TRF AC,ITZ TC AC,3000.0,40.0,3040.0,23.5,15.24,3008.26
7339,Remittance Entry,01/06/2018,ITZ MONEY TRF AC,ITZ TC AC,2000.0,20.0,2020.0,16.0,10.17,2005.83
7340,Remittance Entry,01/06/2018,ITZ MONEY TRF AC,ITZ TC AC,5000.0,50.0,5050.0,38.5,25.41,5013.09
7341,Remittance Entry,01/06/2018,ITZ MONEY TRF AC,ITZ TC AC,10000.0,80.0,10080.0,77.0,50.85,10026.15
7342,Remittance Entry,01/06/2018,ITZ MONEY TRF AC,ITZ TC AC,3000.0,40.0,3040.0,23.5,15.24,3008.26
7343,Remittance Entry,01/06/2018,ITZ MONEY TRF AC,ITZ TC AC,2000.0,20.0,2020.0,16.0,10.17,2005.83
7344,Remittance Entry,01/06/2018,ITZ MONEY TRF AC,ITZ TC AC,600.0,10.0,610.0,5.5,3.04,602.46
7345,Remittance Entry,01/06/2018,ITZ MONEY TRF AC,ITZ TC AC,3500.0,40.0,3540.0,27.25,17.8,3509.45
7346,Remittance Entry,01/06/2018,ITZ MONEY TRF AC,ITZ TC AC,1000.0,10.0,1010.0,8.5,5.07,1003.43
7347,Remittance Entry,01/06/2018,ITZ MONEY TRF AC,ITZ TC AC,4000.0,50.0,4050.0,31.0,20.34,4010.66
7348,Remittance Entry,01/06/2018,FINO MONEY TFD AC NILESH VIRA ,ITZ TC AC,5000.0,50.0,5050.0,15.0,0.0,5015.0
7349,Remittance Entry,01/06/2018,ITZ MONEY TRF AC,ITZ TC AC,7000.0,70.0,7070.0,54.5,35.58,7018.92
7350,Remittance Entry,01/06/2018,ITZ MONEY TRF AC,ITZ TC AC,4500.0,50.0,4550.0,34.75,22.88,4511.87
7351,Remittance Entry,01/06/2018,ITZ MONEY TRF AC,ITZ TC AC,1000.0,10.0,1010.0,8.5,5.07,1003.43
7352,Remittance Entry,01/06/2018,ITZ MONEY TRF AC,ITZ TC AC,22000.0,160.0,22160.0,170.0,111.87,22058.13
7353,Remittance Entry,01/06/2018,ITZ MONEY TRF AC,ITZ TC AC,1500.0,20.0,1520.0,12.25,7.63,1504.62
7354,Remittance Entry,01/06/2018,FINO MONEY TFD AC NILESH VIRA ,ITZ TC AC,10000.0,90.0,10090.0,30.0,0.0,10030.0
7355,Remittance Entry,01/06/2018,ITZ MONEY TRF AC,ITZ TC AC,10000.0,80.0,10080.0,77.0,50.85,10026.15
